%YAML 1.1
%TAG !u! tag:unity3d.com,2011:
--- !u!687078895 &4343727234628468602
SpriteAtlas:
  m_ObjectHideFlags: 0
  m_CorrespondingSourceObject: {fileID: 0}
  m_PrefabInstance: {fileID: 0}
  m_PrefabAsset: {fileID: 0}
  m_Name: Store Sprites
  m_EditorData:
    serializedVersion: 2
    textureSettings:
      serializedVersion: 2
      anisoLevel: 1
      compressionQuality: 50
      maxTextureSize: 2048
      textureCompression: 0
      filterMode: 1
      generateMipMaps: 0
      readable: 0
      crunchedCompression: 0
      sRGB: 1
    platformSettings: []
    packingSettings:
      serializedVersion: 2
      padding: 4
      blockOffset: 1
      allowAlphaSplitting: 0
      enableRotation: 0
      enableTightPacking: 0
      enableAlphaDilation: 0
    secondaryTextureSettings: {}
    variantMultiplier: 1
    packables:
    - {fileID: 2800000, guid: c199be1b47115af4a9eb253fdb12b261, type: 3}
    - {fileID: 2800000, guid: 1c701a93adef8cf4795b06a6de85e1b9, type: 3}
    - {fileID: 2800000, guid: 2e010933387c1504c953bc62de1f25f0, type: 3}
    - {fileID: 2800000, guid: e453c52e61cf02d4bb5e04b6179b9c5e, type: 3}
    - {fileID: 2800000, guid: 3994c44f772f46e42b795a9e22b1d168, type: 3}
    - {fileID: 2800000, guid: f2095ed75142fe241a8da857ce5d70ed, type: 3}
    - {fileID: 2800000, guid: e8265b00d772ca24da3a0818a168f170, type: 3}
    - {fileID: 2800000, guid: 7647cfd8d9003e84592adf42a6a7c553, type: 3}
    - {fileID: 2800000, guid: be41ad2d28ece064686a1f162c66969d, type: 3}
    - {fileID: 2800000, guid: 7a8568f9bd1201a4b8b081493a3d0bc7, type: 3}
    - {fileID: 2800000, guid: b3d688d7b2417b84abb0a9c1defe1203, type: 3}
    - {fileID: 2800000, guid: 97c28bdae149d4b49a87b41cd352f438, type: 3}
    - {fileID: 2800000, guid: d37f114f4ba9c8b45b89694c73323a4f, type: 3}
    - {fileID: 2800000, guid: 20dee1319ff27a54994363c389f42136, type: 3}
    - {fileID: 2800000, guid: 1d7b5ce3e4ed80f4aa2c440b6e502f80, type: 3}
    bindAsDefault: 1
    isAtlasV2: 0
    cachedData: {fileID: 0}
  m_MasterAtlas: {fileID: 0}
  m_PackedSprites:
  - {fileID: 21300000, guid: e8265b00d772ca24da3a0818a168f170, type: 3}
  - {fileID: 21300000, guid: 20dee1319ff27a54994363c389f42136, type: 3}
  - {fileID: 21300000, guid: 2e010933387c1504c953bc62de1f25f0, type: 3}
  - {fileID: 21300000, guid: 1c701a93adef8cf4795b06a6de85e1b9, type: 3}
  - {fileID: 21300000, guid: 1d7b5ce3e4ed80f4aa2c440b6e502f80, type: 3}
  - {fileID: 21300000, guid: b3d688d7b2417b84abb0a9c1defe1203, type: 3}
  - {fileID: 21300000, guid: f2095ed75142fe241a8da857ce5d70ed, type: 3}
  - {fileID: 21300000, guid: 7647cfd8d9003e84592adf42a6a7c553, type: 3}
  - {fileID: 21300000, guid: 7a8568f9bd1201a4b8b081493a3d0bc7, type: 3}
  - {fileID: 21300000, guid: 97c28bdae149d4b49a87b41cd352f438, type: 3}
  - {fileID: 21300000, guid: c199be1b47115af4a9eb253fdb12b261, type: 3}
  - {fileID: 21300000, guid: be41ad2d28ece064686a1f162c66969d, type: 3}
  - {fileID: 21300000, guid: e453c52e61cf02d4bb5e04b6179b9c5e, type: 3}
  - {fileID: 21300000, guid: d37f114f4ba9c8b45b89694c73323a4f, type: 3}
  - {fileID: 21300000, guid: 3994c44f772f46e42b795a9e22b1d168, type: 3}
  m_PackedSpriteNamesToIndex:
  - chack-brick
  - kystyby
  - billi-belyash
  - aqua
  - triangle
  - icon_crystal
  - btn_r_magenta_default
  - icon_bio
  - icon_brain_gray
  - jojo
  - anime-tyan
  - icon_brain
  - bio
  - kosh-tele
  - btn_r_magenta_click
  m_RenderDataMap: {}
  m_Tag: Store Sprites
  m_IsVariant: 0
