Library\Bee\artifacts\mvdfrm\Unity.2D.Animation.Runtime.ref.dll_B7961485F51EB435.mvfrm
Library\Bee\artifacts\mvdfrm\Unity.2D.Common.Runtime.ref.dll_E5EF155FD2A9DC14.mvfrm
Library\Bee\artifacts\mvdfrm\Unity.2D.IK.Runtime.ref.dll_8B0B10238FE8CA2B.mvfrm
Library\Bee\artifacts\mvdfrm\Unity.2D.PixelPerfect.ref.dll_3D64B16E5011B116.mvfrm
Library\Bee\artifacts\mvdfrm\Unity.2D.SpriteShape.Runtime.ref.dll_371409BB7D882EAD.mvfrm
Library\Bee\artifacts\mvdfrm\Unity.2D.Tilemap.Extras.ref.dll_A593BB962D7D7DA2.mvfrm
Library\Bee\artifacts\mvdfrm\Unity.Addressables.ref.dll_1059048E9DD8D528.mvfrm
Library\Bee\artifacts\mvdfrm\Unity.Burst.ref.dll_14316E70964BB953.mvfrm
Library\Bee\artifacts\mvdfrm\Unity.InternalAPIEngineBridge.001.ref.dll_9031ADE18CD0CF4E.mvfrm
Library\Bee\artifacts\mvdfrm\Unity.Mathematics.ref.dll_14D1A32168A0AD59.mvfrm
Library\Bee\artifacts\mvdfrm\Unity.ResourceManager.ref.dll_0B88880A5261CF92.mvfrm
Library\Bee\artifacts\mvdfrm\Unity.ScriptableBuildPipeline.ref.dll_12B15CD22EFCA75E.mvfrm
Library\Bee\artifacts\mvdfrm\Unity.TextMeshPro.ref.dll_B085F143991618E6.mvfrm
Library\Bee\artifacts\mvdfrm\Unity.Timeline.ref.dll_54050F91DBE64E14.mvfrm
Library\Bee\artifacts\mvdfrm\Unity.VisualScripting.Core.ref.dll_27ACA245D8399F39.mvfrm
Library\Bee\artifacts\mvdfrm\Unity.VisualScripting.Flow.ref.dll_6EBD829C5A4313E8.mvfrm
Library\Bee\artifacts\mvdfrm\Unity.VisualScripting.State.ref.dll_F0190167D28F2F4D.mvfrm
Library\Bee\artifacts\mvdfrm\UnityEngine.UI.ref.dll_FAE6DBEA21006BE5.mvfrm
Library\Bee\artifacts\mvdfrm\Unity.Burst.Cecil.dll_7EF0349B250BA362.mvfrm
Library\Bee\artifacts\mvdfrm\Unity.Burst.Cecil.Mdb.dll_FEB682F8FC23AF1F.mvfrm
Library\Bee\artifacts\mvdfrm\Unity.Burst.Cecil.Pdb.dll_1608FB687AD8B0A2.mvfrm
Library\Bee\artifacts\mvdfrm\Unity.Burst.Cecil.Rocks.dll_2613BB46F8947902.mvfrm
Library\Bee\artifacts\mvdfrm\Unity.Burst.Unsafe.dll_784B5FE4BBA3C291.mvfrm
Library\Bee\artifacts\mvdfrm\Unity.VisualScripting.Antlr3.Runtime.dll_177B4E5CA894CE55.mvfrm
Library\Bee\artifacts\mvdfrm\UnityEngine.AccessibilityModule.dll_314C380E210D14C9.mvfrm
Library\Bee\artifacts\mvdfrm\UnityEngine.AIModule.dll_FE7AD460D99F4161.mvfrm
Library\Bee\artifacts\mvdfrm\UnityEngine.AndroidJNIModule.dll_358DB3B560A5B79F.mvfrm
Library\Bee\artifacts\mvdfrm\UnityEngine.AnimationModule.dll_44F8E59F0B16192F.mvfrm
Library\Bee\artifacts\mvdfrm\UnityEngine.ARModule.dll_B7ED996436BCA02A.mvfrm
Library\Bee\artifacts\mvdfrm\UnityEngine.AssetBundleModule.dll_2919B22F795EBC3D.mvfrm
Library\Bee\artifacts\mvdfrm\UnityEngine.AudioModule.dll_FD8F170B1EDB1661.mvfrm
Library\Bee\artifacts\mvdfrm\UnityEngine.ClothModule.dll_64777405F8F7F545.mvfrm
Library\Bee\artifacts\mvdfrm\UnityEngine.ClusterInputModule.dll_8716CBA7829FDEA9.mvfrm
Library\Bee\artifacts\mvdfrm\UnityEngine.ClusterRendererModule.dll_03F8CA3F3C22EF28.mvfrm
Library\Bee\artifacts\mvdfrm\UnityEngine.CoreModule.dll_0A0991FEEB3A71D8.mvfrm
Library\Bee\artifacts\mvdfrm\UnityEngine.CrashReportingModule.dll_829507A00B929C70.mvfrm
Library\Bee\artifacts\mvdfrm\UnityEngine.DirectorModule.dll_C4C52461845E75F5.mvfrm
Library\Bee\artifacts\mvdfrm\UnityEngine.dll_CDE6ACE0D366903D.mvfrm
Library\Bee\artifacts\mvdfrm\UnityEngine.DSPGraphModule.dll_CA1685CAF6BF4716.mvfrm
Library\Bee\artifacts\mvdfrm\UnityEngine.GameCenterModule.dll_5FDAFDD026E6A890.mvfrm
Library\Bee\artifacts\mvdfrm\UnityEngine.GIModule.dll_96B71D6E754E297B.mvfrm
Library\Bee\artifacts\mvdfrm\UnityEngine.GridModule.dll_E77AADED038F07CF.mvfrm
Library\Bee\artifacts\mvdfrm\UnityEngine.HotReloadModule.dll_C641A3A4E64934B1.mvfrm
Library\Bee\artifacts\mvdfrm\UnityEngine.ImageConversionModule.dll_6FEAC7EFBE47A71C.mvfrm
Library\Bee\artifacts\mvdfrm\UnityEngine.IMGUIModule.dll_35EEB671E50CAA42.mvfrm
Library\Bee\artifacts\mvdfrm\UnityEngine.InputLegacyModule.dll_BA5ECD4E1150722E.mvfrm
Library\Bee\artifacts\mvdfrm\UnityEngine.InputModule.dll_6404DEBB95133B05.mvfrm
Library\Bee\artifacts\mvdfrm\UnityEngine.JSONSerializeModule.dll_9163C14A20487553.mvfrm
Library\Bee\artifacts\mvdfrm\UnityEngine.LocalizationModule.dll_C56395FA1A1BD1A2.mvfrm
Library\Bee\artifacts\mvdfrm\UnityEngine.ParticleSystemModule.dll_D5A750EC79A427FE.mvfrm
Library\Bee\artifacts\mvdfrm\UnityEngine.PerformanceReportingModule.dll_0C58995C67C9DE97.mvfrm
Library\Bee\artifacts\mvdfrm\UnityEngine.Physics2DModule.dll_919ED58FAC1310C4.mvfrm
Library\Bee\artifacts\mvdfrm\UnityEngine.PhysicsModule.dll_D22318EDF808C752.mvfrm
Library\Bee\artifacts\mvdfrm\UnityEngine.ProfilerModule.dll_F70B5D981DB7FD02.mvfrm
Library\Bee\artifacts\mvdfrm\UnityEngine.RuntimeInitializeOnLoadManagerInitializerModule.dll_1B76EDA95020098D.mvfrm
Library\Bee\artifacts\mvdfrm\UnityEngine.ScreenCaptureModule.dll_AB4B6ECF34B4A1B5.mvfrm
Library\Bee\artifacts\mvdfrm\UnityEngine.SharedInternalsModule.dll_F3FC06C53575A26C.mvfrm
Library\Bee\artifacts\mvdfrm\UnityEngine.SpriteMaskModule.dll_4907706048563E0A.mvfrm
Library\Bee\artifacts\mvdfrm\UnityEngine.SpriteShapeModule.dll_427ADF8A2F00F447.mvfrm
Library\Bee\artifacts\mvdfrm\UnityEngine.StreamingModule.dll_F98DD2EF5A9DD06D.mvfrm
Library\Bee\artifacts\mvdfrm\UnityEngine.SubstanceModule.dll_D638E738A5F0CE7B.mvfrm
Library\Bee\artifacts\mvdfrm\UnityEngine.SubsystemsModule.dll_B3B4D6C2169E261D.mvfrm
Library\Bee\artifacts\mvdfrm\UnityEngine.TerrainModule.dll_EC69945CCDC71040.mvfrm
Library\Bee\artifacts\mvdfrm\UnityEngine.TerrainPhysicsModule.dll_D621F9BF92E7228B.mvfrm
Library\Bee\artifacts\mvdfrm\UnityEngine.TextCoreFontEngineModule.dll_F8CDF597F849D056.mvfrm
Library\Bee\artifacts\mvdfrm\UnityEngine.TextCoreTextEngineModule.dll_40B62C0987CD8974.mvfrm
Library\Bee\artifacts\mvdfrm\UnityEngine.TextRenderingModule.dll_D48AE0D9EBEC21AA.mvfrm
Library\Bee\artifacts\mvdfrm\UnityEngine.TilemapModule.dll_8B65FBDDE583F149.mvfrm
Library\Bee\artifacts\mvdfrm\UnityEngine.TLSModule.dll_B73E944558CDF3A6.mvfrm
Library\Bee\artifacts\mvdfrm\UnityEngine.UIElementsModule.dll_B7F3382A19CA6214.mvfrm
Library\Bee\artifacts\mvdfrm\UnityEngine.UIElementsNativeModule.dll_569B698AA4465DEB.mvfrm
Library\Bee\artifacts\mvdfrm\UnityEngine.UIModule.dll_F9EE728E35E6470D.mvfrm
Library\Bee\artifacts\mvdfrm\UnityEngine.UmbraModule.dll_7863C323AC01C1D4.mvfrm
Library\Bee\artifacts\mvdfrm\UnityEngine.UNETModule.dll_9CAFD9E838496751.mvfrm
Library\Bee\artifacts\mvdfrm\UnityEngine.UnityAnalyticsModule.dll_F546C1B625CB79FA.mvfrm
Library\Bee\artifacts\mvdfrm\UnityEngine.UnityConnectModule.dll_F4D9DAA0CBA00C8E.mvfrm
Library\Bee\artifacts\mvdfrm\UnityEngine.UnityCurlModule.dll_781586D07B2A0B1C.mvfrm
Library\Bee\artifacts\mvdfrm\UnityEngine.UnityTestProtocolModule.dll_8A6CD2505A97AD8A.mvfrm
Library\Bee\artifacts\mvdfrm\UnityEngine.UnityWebRequestAssetBundleModule.dll_08DDB8AB0B2D884B.mvfrm
Library\Bee\artifacts\mvdfrm\UnityEngine.UnityWebRequestAudioModule.dll_8454ED3AEE34A92F.mvfrm
Library\Bee\artifacts\mvdfrm\UnityEngine.UnityWebRequestModule.dll_8189CF99C93C419B.mvfrm
Library\Bee\artifacts\mvdfrm\UnityEngine.UnityWebRequestTextureModule.dll_D3209802E483CAE4.mvfrm
Library\Bee\artifacts\mvdfrm\UnityEngine.UnityWebRequestWWWModule.dll_0B787165778D45E0.mvfrm
Library\Bee\artifacts\mvdfrm\UnityEngine.VehiclesModule.dll_3C881DE0FE884590.mvfrm
Library\Bee\artifacts\mvdfrm\UnityEngine.VFXModule.dll_381D2CB42F3B5D13.mvfrm
Library\Bee\artifacts\mvdfrm\UnityEngine.VideoModule.dll_22989B75E16D3206.mvfrm
Library\Bee\artifacts\mvdfrm\UnityEngine.VirtualTexturingModule.dll_7B281DF97CF4DE76.mvfrm
Library\Bee\artifacts\mvdfrm\UnityEngine.VRModule.dll_4CC09913D7A0CC85.mvfrm
Library\Bee\artifacts\mvdfrm\UnityEngine.WindModule.dll_80586D277C70F041.mvfrm
Library\Bee\artifacts\mvdfrm\UnityEngine.XRModule.dll_7F7F5C1860DB19E3.mvfrm