{
    "UxmlGuid": "7354f6010aea05d428018abede734721",
    "UxmlPath": "Assets/UI/Navigation/ListItem.uxml",
    "CanvasX": 0,
    "CanvasY": 0,
    "CanvasWidth": 285,
    "CanvasHeight": 363,
    "MatchGameView": false,
    "ZoomScale": 1.0,
    "PanOffset": {
        "x": 32.423736572265628,
        "y": 41.53802490234375
    },
    "ColorModeBackgroundOpacity": 1.0,
    "ImageModeCanvasBackgroundOpacity": 1.0,
    "CameraModeCanvasBackgroundOpacity": 1.0,
    "EnableCanvasBackground": false,
    "CanvasBackgroundMode": 0,
    "CanvasBackgroundColor": {
        "r": 0.0,
        "g": 0.0,
        "b": 0.0,
        "a": 255.0
    },
    "CanvasBackgroundImage": {
        "instanceID": 0
    },
    "CanvasBackgroundImageScaleMode": 1,
    "CanvasBackgroundCameraName": ""
}